[
    {
        "test-name": "fapi-rw-id2-refresh-token",
        "variant": {
                "client_auth_type": "private_key_jwt",
                "fapi_profile": "openbanking_uk",
                "fapi_response_mode": "plain_response"
        },
        "configuration-filename": "authlete-fapi-rw-id2-ob-privatekey.json"
    },
    {
        "test-name": "oidcc-idtoken-unsigned",
        "variant": "*",
        "configuration-filename": "authlete-oidcc-dcr.json"
    }
]
